{
  "link.help_text": {
    "message": "Jeśli adres URL nie został podany, Twoje logo będzie połączone z główną domeną",
    "description": null,
    "placeholders": null
  },
  "link.label": {
    "message": "Łącze URL",
    "description": null,
    "placeholders": null
  },
  "open_in_new_tab.label": {
    "message": "Po kliknięciu przez odwiedzającego otwórz łącze w nowej karcie",
    "description": null,
    "placeholders": null
  },
  "name": {
    "message": "Logo",
    "description": null,
    "placeholders": null
  },
  "heading_style.choices.h1": {
    "message": "H1",
    "description": "",
    "placeholders": null
  },
  "heading_style.choices.h2": {
    "message": "H2",
    "description": "",
    "placeholders": null
  },
  "heading_style.choices.h3": {
    "message": "H3",
    "description": "",
    "placeholders": null
  },
  "heading_style.choices.h4": {
    "message": "H4",
    "description": "",
    "placeholders": null
  },
  "heading_style.help_text": {
    "message": "Wybierz styl swojego nagłówka. Największym jest H1, następnie H2 itd.",
    "description": "",
    "placeholders": null
  },
  "heading_style.label": {
    "message": "Styl nagłówka",
    "description": "",
    "placeholders": null
  },
  "heading_level.choices.h1": {
    "message": "H1",
    "description": "",
    "placeholders": null
  },
  "heading_level.choices.h2": {
    "message": "H2",
    "description": "",
    "placeholders": null
  },
  "heading_level.choices.h3": {
    "message": "H3",
    "description": "",
    "placeholders": null
  },
  "heading_level.choices.h4": {
    "message": "H4",
    "description": "",
    "placeholders": null
  },
  "heading_level.choices.h5": {
    "message": "H5",
    "description": "",
    "placeholders": null
  },
  "heading_level.choices.h6": {
    "message": "H6",
    "description": "",
    "placeholders": null
  },
  "heading_level.help_text": {
    "message": "Wybierz poziom swojego nagłówka. Największym jest H1, następnie H2 itd.",
    "description": "",
    "placeholders": null
  },
  "heading_level.label": {
    "message": "Poziom nagłówka",
    "description": "",
    "placeholders": null
  }
}
