{
  "name": {
    "message": "Separator",
    "description": "",
    "placeholders": null
  },
  "alignment.label": {
    "message": "Dopasowanie",
    "description": "",
    "placeholders": null
  },
  "alignment.choices.center": {
    "message": "Środek",
    "description": "",
    "placeholders": null
  },
  "alignment.choices.left": {
    "message": "Do lewej",
    "description": "",
    "placeholders": null
  },
  "alignment.choices.right": {
    "message": "Do prawej",
    "description": "",
    "placeholders": null
  },
  "color.label": {
    "message": "Kolor",
    "description": "",
    "placeholders": null
  },
  "height.label": {
    "message": "Wysokość (px)",
    "description": "",
    "placeholders": null
  },
  "line_type.label": {
    "message": "Typ linii",
    "description": "",
    "placeholders": null
  },
  "line_type.choices.dashed": {
    "message": "Kreskowana",
    "description": "",
    "placeholders": null
  },
  "line_type.choices.dotted": {
    "message": "Kropkowana",
    "description": "",
    "placeholders": null
  },
  "line_type.choices.solid": {
    "message": "Jednolita",
    "description": "",
    "placeholders": null
  },
  "padding.label": {
    "message": "Padding (px)",
    "description": "",
    "placeholders": null
  },
  "show_padding.label": {
    "message": "Pokazać padding?",
    "description": "",
    "placeholders": null
  },
  "width.label": {
    "message": "Szerokość (%)",
    "description": "",
    "placeholders": null
  }
}
