{
  "name": {
    "message": "เนื้อหาอีเมลหลัก",
    "description": "",
    "placeholders": null
  },
  "html.default": {
    "message": "<p>สวัสดีคุณ&nbsp;{{contact.firstname}}</p>\n<p>อธิบายว่าคุณมีอะไรมานำเสนอลูกค้า ทำไมลูกค้าจึงควรอ่าน สิ่งที่คุณรับปากว่าลูกค้าจะได้รับในบรรทัดหัวเรื่อง บอกลูกค้าว่ามีอะไรเจ๋งๆ ทำให้ลูกค้าหัวเราะ ทำให้ลูกค้าร้องไห้ พูดเล่นน่ะ...</p>\n<p>ใช้รายการเพื่อทำดังนี้</p>\n<ul>\n<li>อธิบายคุณค่าของข้อเสนอของคุณ</li>\n<li>ย้ำกับผู้อ่านว่าทำแล้วจะได้อะไร</li>\n<li>อวดทักษะของคุณเป็นข้อๆ</li>\n<li>ทำให้เนื้อหาของคุณอ่านง่าย</li>\n</ul>\n<p><a href=\"http://hubspot.com\">ลิงก์ไปยังหน้าเริ่มต้นบนเว็บไซต์ของคุณ</a> (นี่เป็นส่วนที่สำคัญมาก)</p>\n<p>ตอนนี้สรุปรวมทั้งหมดพร้อมย้ำแบบสั้นๆ ว่าคุณรักลูกค้าเพียงใด</p>\n<p>ว้าว นักขายลิ้นทองจอมโน้มน้าว คุณนี่เอง</p>\n<p>ขอแสดงความนับถือ</p>\n<p>ชื่อของคุณ</p>",
    "description": "",
    "placeholders": null
  },
  "html.label": {
    "message": "เนื้อหาอีเมล",
    "description": "",
    "placeholders": null
  }
}
