{
  "name": {
    "message": "Blog Tag Filter",
    "description": "",
    "placeholders": null
  },
  "default_filter_text.default": {
    "message": "Select Category",
    "description": "",
    "placeholders": null
  },
  "default_filter_text.label": {
    "message": "Placeholder text",
    "description": "",
    "placeholders": null
  }
}
