{
  "name": {
    "message": "Blog tartalma",
    "description": "",
    "placeholders": null
  },
  "template_to_edit.choices.post": {
    "message": "Bejegyzés",
    "description": "",
    "placeholders": null
  },
  "blog_post_source.label": {
    "message": "Blogbejegyzés forrása",
    "description": "",
    "placeholders": null
  },
  "template_to_edit.choices.listing": {
    "message": "Listázás",
    "description": "",
    "placeholders": null
  },
  "template_to_edit.placeholder": {
    "message": "Keresés",
    "description": "",
    "placeholders": null
  },
  "template_to_edit.label": {
    "message": "Szerkeszthető sablon",
    "description": "",
    "placeholders": null
  },
  "blog_listing_source.label": {
    "message": "Blogbejegyzés forrása",
    "description": "",
    "placeholders": null
  }
}
