{
  "name": {
    "message": "Cabeçalho da secção",
    "description": "",
    "placeholders": null
  },
  "subheader.default": {
    "message": "Um subcabeçalho mais atenuado",
    "description": "",
    "placeholders": null
  },
  "header.default": {
    "message": "Um cabeçalho limpo e negrito",
    "description": "",
    "placeholders": null
  },
  "heading_level.choices.h1": {
    "message": "H1",
    "description": "",
    "placeholders": null
  },
  "heading_level.choices.h2": {
    "message": "H2",
    "description": "",
    "placeholders": null
  },
  "heading_level.choices.h3": {
    "message": "H3",
    "description": "",
    "placeholders": null
  },
  "heading_level.choices.h4": {
    "message": "H4",
    "description": "",
    "placeholders": null
  },
  "heading_level.choices.h5": {
    "message": "H5",
    "description": "",
    "placeholders": null
  },
  "heading_level.choices.h6": {
    "message": "H6",
    "description": "",
    "placeholders": null
  },
  "heading_level.help_text": {
    "message": "Escolha um nível de cabeçalho. H1 é o maior, seguido de H2 e assim sucessivamente",
    "description": "",
    "placeholders": null
  },
  "heading_level.label": {
    "message": "Nível do cabeçalho",
    "description": "",
    "placeholders": null
  },
  "header.label": {
    "message": "Conteúdo do cabeçalho da secção",
    "description": "",
    "placeholders": null
  },
  "subheader.label": {
    "message": "Subcabeçalho da secção",
    "description": "",
    "placeholders": null
  }
}
