{
  "name": {
    "message": "Simge",
    "description": "",
    "placeholders": null
  },
  "accessibility.label": {
    "message": "Erişilebilirlik seçenekleri",
    "description": "",
    "placeholders": null
  },
  "accessibility.purpose.choices.decorative": {
    "message": "Ekran okuyucu tarafından yok sayıldı",
    "description": "",
    "placeholders": null
  },
  "accessibility.purpose.choices.semantic": {
    "message": "Ekran okuyucu tarafından okundu",
    "description": "",
    "placeholders": null
  },
  "accessibility.purpose.label": {
    "message": "Amaç",
    "description": "",
    "placeholders": null
  },
  "accessibility.title.label": {
    "message": "Başlık",
    "description": "",
    "placeholders": null
  },
  "icon_field.label": {
    "message": "Simge",
    "description": "",
    "placeholders": null
  },
  "style.color.label": {
    "message": "Renk",
    "description": "",
    "placeholders": null
  },
  "style.label": {
    "message": "Stil seçenekleri",
    "description": "",
    "placeholders": null
  },
  "style.size.help_text": {
    "message": "Piksel cinsinden genişlik",
    "description": "",
    "placeholders": null
  },
  "style.size.label": {
    "message": "Boyut",
    "description": "",
    "placeholders": null
  }
}
