{
  "name": {
    "message": "Listagem de publicações do blog",
    "description": "",
    "placeholders": null
  },
  "number_of_posts.label": {
    "message": "Número de publicações",
    "description": "",
    "placeholders": null
  },
  "read_more.default": {
    "message": "Ler mais",
    "description": "",
    "placeholders": null
  },
  "read_more.label": {
    "message": "Texto de Ler mais",
    "description": "",
    "placeholders": null
  },
  "select_blog.label": {
    "message": "Selecionar blog",
    "description": "",
    "placeholders": null
  },
  "select_blog_type.choices.popular_posts": {
    "message": "Publicações populares",
    "description": "",
    "placeholders": null
  },
  "select_blog_type.choices.recent_posts": {
    "message": "Publicações recentes",
    "description": "",
    "placeholders": null
  },
  "select_blog_type.label": {
    "message": "Selecionar o tipo de blog",
    "description": "",
    "placeholders": null
  },
  "style.background_color.label": {
    "message": "Cor de fundo",
    "description": "",
    "placeholders": null
  },
  "style.label": {
    "message": "Opções de estilo",
    "description": "",
    "placeholders": null
  },
  "style.override_default_style.label": {
    "message": "Contornar estilo predefinido",
    "description": "",
    "placeholders": null
  },
  "style.text_color.label": {
    "message": "Cor do texto",
    "description": "",
    "placeholders": null
  }
}
