{
  "name": {
    "message": "Abonelik onay mesajı",
    "description": "",
    "placeholders": null
  },
  "subscription_update_success.default": {
    "message": "E-posta tercihlerinizi başarıyla güncellediniz.",
    "description": "",
    "placeholders": null
  },
  "subheader_text.label": {
    "message": "Alt başlık",
    "description": "",
    "placeholders": null
  },
  "unsubscribe_all_success.default": {
    "message": "Tüm e-posta iletişimlerinden başarıyla çıktınız.",
    "description": "",
    "placeholders": null
  },
  "subheader_text.default": {
    "message": "Bu sizin e-posta adresiniz değilse bu sayfayla ilişkili e-posta büyük olasılıkla size iletildiği için lütfen bu sayfayı yok sayın.",
    "description": "",
    "placeholders": null
  },
  "header.placeholder": {
    "message": "Başlık metni",
    "description": "",
    "placeholders": null
  },
  "header.label": {
    "message": "Başlık",
    "description": "",
    "placeholders": null
  },
  "subscription_update_success.label": {
    "message": "Abonelik güncellemesiyle ilgili mesaj",
    "description": "",
    "placeholders": null
  },
  "unsubscribe_all_success.label": {
    "message": "Abonelikten çıkma mesajı",
    "description": "",
    "placeholders": null
  }
}
