{
  "name": {
    "message": "Susitikimai",
    "description": "",
    "placeholders": null
  },
  "meeting.label": {
    "message": "Pasirinkti susitikimo nuorodą",
    "description": "",
    "placeholders": null
  },
  "meeting.help_text": {
    "message": "Pasirinkite esamą susitikimą šoninėje juostoje arba sukurkite naują apsilankę <a href='//app.hubspot.com/l/meetings/'>susitikimų įrankio srityje</a>",
    "description": "",
    "placeholders": null
  },
  "select_meeting_title.default": {
    "message": "Susitikimų nepasirinkta",
    "description": "",
    "placeholders": null
  },
  "select_meeting_description.default": {
    "message": "Pasirinkite esamą susitikimą šoninėje juostoje arba sukurkite naują apsilankę susitikimų įrankio srityje",
    "description": "",
    "placeholders": null
  }
}
