{
  "name": {
    "message": "Menu simple",
    "description": "",
    "placeholders": null
  },
  "menu_tree.label": {
    "message": "menu simple ",
    "description": "",
    "placeholders": null
  },
  "orientation.choices.horizontal": {
    "message": "Horizontal",
    "description": "",
    "placeholders": null
  },
  "orientation.choices.vertical": {
    "message": "Vertical",
    "description": "",
    "placeholders": null
  },
  "orientation.label": {
    "message": "Orientation du menu",
    "description": "",
    "placeholders": null
  },
  "orientation.placeholder": {
    "message": "Rechercher",
    "description": "",
    "placeholders": null
  }
}
