{
  "name": {
    "message": "Vaizdo įrašas",
    "description": "",
    "placeholders": null
  },
  "video_type.label": {
    "message": "Vaizdo įrašo tipas",
    "description": "",
    "placeholders": null
  },
  "video_type.choices.embed": {
    "message": "Įdėti",
    "description": "",
    "placeholders": null
  },
  "video_type.choices.hubspot_video": {
    "message": "„HubSpot“ vaizdo įrašas",
    "description": "",
    "placeholders": null
  },
  "hubspot_video.label": {
    "message": "„HubSpot“ vaizdo įrašas",
    "description": "",
    "placeholders": null
  },
  "embed_field.label": {
    "message": "Įdėti",
    "description": "",
    "placeholders": null
  },
  "oembed_thumbnail.label": {
    "message": "Pasirinktinė miniatiūra",
    "description": "",
    "placeholders": null
  },
  "style_options.label": {
    "message": "Stiliaus parinktys",
    "description": "",
    "placeholders": null
  },
  "style_options.oembed_thumbnail_play_button_color.label": {
    "message": "Leidimo mygtuko spalva",
    "description": "",
    "placeholders": null
  },
  "placeholder_fields.label": {
    "message": "Vietos rezervavimo ženklo tekstas",
    "description": "",
    "placeholders": null
  },
  "placeholder_fields.placeholder_title.label": {
    "message": "Vaido įrašo vietos rezervavimo ženklo pavadinimas",
    "description": "",
    "placeholders": null
  },
  "placeholder_fields.placeholder_title.default": {
    "message": "Vaizdo įrašai nepasirinkti",
    "description": "",
    "placeholders": null
  },
  "placeholder_fields.placeholder_description.label": {
    "message": "Vaizdo įrašo vietos rezervavimo ženklo aprašas",
    "description": "",
    "placeholders": null
  },
  "placeholder_fields.placeholder_description.default": {
    "message": "Pasirinkite vaizdo įrašo tipą šoninėje juostoje",
    "description": "",
    "placeholders": null
  }
}
