{
  "heading_style.choices.h1": {
    "message": "H1",
    "description": "",
    "placeholders": null
  },
  "heading_style.choices.h2": {
    "message": "H2",
    "description": "",
    "placeholders": null
  },
  "heading_style.choices.h3": {
    "message": "H3",
    "description": "",
    "placeholders": null
  },
  "heading_style.choices.h4": {
    "message": "H4",
    "description": "",
    "placeholders": null
  },
  "heading_style.help_text": {
    "message": "Izberite slog naslova. H1 je največji, sledi H2 itd",
    "description": "",
    "placeholders": null
  },
  "heading_style.label": {
    "message": "Slog naslova",
    "description": "",
    "placeholders": null
  },
  "link.help_text": {
    "message": "Če URL ni naveden, bo vaš logotip povezava do vaše primarne domene",
    "description": "",
    "placeholders": null
  },
  "link.label": {
    "message": "URL povezave",
    "description": "",
    "placeholders": null
  },
  "name": {
    "message": "Logotip",
    "description": "",
    "placeholders": null
  },
  "open_in_new_tab.label": {
    "message": "Ko obiskovalci kliknejo povezavo, se odpre v novem zavihku",
    "description": "",
    "placeholders": null
  },
  "heading_level.choices.h1": {
    "message": "H1",
    "description": "",
    "placeholders": null
  },
  "heading_level.choices.h2": {
    "message": "H2",
    "description": "",
    "placeholders": null
  },
  "heading_level.choices.h3": {
    "message": "H3",
    "description": "",
    "placeholders": null
  },
  "heading_level.choices.h4": {
    "message": "H4",
    "description": "",
    "placeholders": null
  },
  "heading_level.choices.h5": {
    "message": "H5",
    "description": "",
    "placeholders": null
  },
  "heading_level.choices.h6": {
    "message": "H6",
    "description": "",
    "placeholders": null
  },
  "heading_level.help_text": {
    "message": "Izberite slog naslova. H1 je največji, sledi H2, itd.",
    "description": "",
    "placeholders": null
  },
  "heading_level.label": {
    "message": "Slog naslova",
    "description": "",
    "placeholders": null
  }
}
