{
  "name": {
    "message": "Feliratkozások megerősítő üzenete",
    "description": "",
    "placeholders": null
  },
  "subscription_update_success.default": {
    "message": "Sikeresen frissítette az e-mail beállításait.",
    "description": "",
    "placeholders": null
  },
  "subheader_text.label": {
    "message": "Alfejléc",
    "description": "",
    "placeholders": null
  },
  "unsubscribe_all_success.default": {
    "message": "Sikeresen leiratkozott az összes e-mailes kommunikációról.",
    "description": "",
    "placeholders": null
  },
  "subheader_text.default": {
    "message": "Ha ez nem az Ön e-mail-címe, hagyja figyelmen kívül ezt az oldalt, mert az ehhez az oldalhoz kapcsolódó e-mailt valószínűleg továbbították Önnek.",
    "description": "",
    "placeholders": null
  },
  "header.placeholder": {
    "message": "Fejléc szövege",
    "description": "",
    "placeholders": null
  },
  "header.label": {
    "message": "Fejléc",
    "description": "",
    "placeholders": null
  },
  "subscription_update_success.label": {
    "message": "A feliratkozás frissüléséről szóló üzenet",
    "description": "",
    "placeholders": null
  },
  "unsubscribe_all_success.label": {
    "message": "Üzenet a leiratkozásról",
    "description": "",
    "placeholders": null
  }
}
