{
  "name": {
    "message": "Icona",
    "description": "",
    "placeholders": null
  },
  "accessibility.label": {
    "message": "Opcions d'accessibilitat",
    "description": "",
    "placeholders": null
  },
  "accessibility.purpose.choices.decorative": {
    "message": "Ignorat pel lector de pantalla",
    "description": "",
    "placeholders": null
  },
  "accessibility.purpose.choices.semantic": {
    "message": "Llegit pel lector de pantalla",
    "description": "",
    "placeholders": null
  },
  "accessibility.purpose.label": {
    "message": "Finalitat",
    "description": "",
    "placeholders": null
  },
  "accessibility.title.label": {
    "message": "Títol",
    "description": "",
    "placeholders": null
  },
  "icon_field.label": {
    "message": "Icona",
    "description": "",
    "placeholders": null
  },
  "style.color.label": {
    "message": "Color",
    "description": "",
    "placeholders": null
  },
  "style.label": {
    "message": "Opcions de l'estil",
    "description": "",
    "placeholders": null
  },
  "style.size.help_text": {
    "message": "Amplada en píxels",
    "description": "",
    "placeholders": null
  },
  "style.size.label": {
    "message": "Mida",
    "description": "",
    "placeholders": null
  }
}
