{
  "name": {
    "message": "Ползунок отзыва",
    "description": "",
    "placeholders": null
  },
  "override_default_style.help_text": {
    "message": "Включение этого параметра позволит переопределять стили тем по умолчанию. Отключение этого параметра приведет к переподключению модуля к стилям тем по умолчанию.",
    "description": "",
    "placeholders": null
  },
  "override_default_style.label": {
    "message": "Переопределить стиль по умолчанию",
    "description": "",
    "placeholders": null
  },
  "style.label": {
    "message": "Параметры стиля",
    "description": "",
    "placeholders": null
  },
  "style.navigation_active_color.label": {
    "message": "Цвет активной навигации",
    "description": "",
    "placeholders": null
  },
  "style.navigation_color.label": {
    "message": "Цвет навигации",
    "description": "",
    "placeholders": null
  },
  "testimonial_slider.author.author_name.default": {
    "message": "Лори Хан",
    "description": "",
    "placeholders": null
  },
  "testimonial_slider.author.author_name.label": {
    "message": "Имя автора",
    "description": "",
    "placeholders": null
  },
  "testimonial_slider.author.label": {
    "message": "Автор",
    "description": "",
    "placeholders": null
  },
  "testimonial_slider.content.default": {
    "message": "Lorem ipsum dolor sit amet, consectetur adipiscing elit, sed do eiusmod tempor incididunt ut labore et dolore magna aliqua. Ut enim ad minim veniam, quis nostrud exercitation",
    "description": "",
    "placeholders": null
  },
  "testimonial_slider.content.label": {
    "message": "Текст отзыва",
    "description": "",
    "placeholders": null
  },
  "testimonial_slider.label": {
    "message": "Отзывы",
    "description": "",
    "placeholders": null
  }
}
