{
  "name": {
    "message": "Megtekintés weblapként",
    "description": "",
    "placeholders": null
  },
  "html.default": {
    "message": "<div style=\"padding-top: 15px; font-family: Geneva, Verdana, Arial, Helvetica, sans-serif; text-align: right; font-size: 9px; line-height: 1.34em; color: {{ secondary_font_color }};\">Ha az e-mail nem jelenik meg megfelelően, tekintse meg weblapként <a target=\"_blank\" href=\"{{ view_as_page_url }}\" style=\"color: {{ secondary_font_color }}; text-decoration: underline; white-space: nowrap;\" data-viewaswebpage=\"true\">itt</a>.</div>",
    "description": "",
    "placeholders": null
  },
  "html.label": {
    "message": "Megtekintés weblapként szöveg",
    "description": "",
    "placeholders": null
  }
}
