{
  "name": {
    "message": "סמל",
    "description": "",
    "placeholders": null
  },
  "accessibility.label": {
    "message": "אפשרויות נגישות",
    "description": "",
    "placeholders": null
  },
  "accessibility.purpose.choices.decorative": {
    "message": "קורא המסך מתעלם",
    "description": "",
    "placeholders": null
  },
  "accessibility.purpose.choices.semantic": {
    "message": "נקרא באמצעות קורא מסך",
    "description": "",
    "placeholders": null
  },
  "accessibility.purpose.label": {
    "message": "מטרה",
    "description": "",
    "placeholders": null
  },
  "accessibility.title.label": {
    "message": "כותרת",
    "description": "",
    "placeholders": null
  },
  "icon_field.label": {
    "message": "סמל",
    "description": "",
    "placeholders": null
  },
  "style.color.label": {
    "message": "צבע",
    "description": "",
    "placeholders": null
  },
  "style.label": {
    "message": "אפשרויות סגנון",
    "description": "",
    "placeholders": null
  },
  "style.size.help_text": {
    "message": "רוחב בפיקסלים",
    "description": "",
    "placeholders": null
  },
  "style.size.label": {
    "message": "גודל",
    "description": "",
    "placeholders": null
  }
}
