{
  "email.custom_link_format.default": {
    "message": "mailto:?subject=Check out {{ social_link_url }} &body=Check out {{ social_link_url }}",
    "description": "",
    "placeholders": null
  },
  "email.custom_link_format.label": {
    "message": "Ссылка",
    "description": "",
    "placeholders": null
  },
  "email.enabled.label": {
    "message": "Включено?",
    "description": "",
    "placeholders": null
  },
  "email.label": {
    "message": "Адрес эл. почты",
    "description": "",
    "placeholders": null
  },
  "facebook.custom_link_format.default": {
    "message": "http://www.facebook.com/share.php?u={{ social_link_url }}",
    "description": "",
    "placeholders": null
  },
  "facebook.custom_link_format.label": {
    "message": "Ссылка",
    "description": "",
    "placeholders": null
  },
  "facebook.enabled.label": {
    "message": "Включено?",
    "description": "",
    "placeholders": null
  },
  "facebook.label": {
    "message": "Facebook",
    "description": "",
    "placeholders": null
  },
  "link.help_text": {
    "message": "Это целевая ссылка, которая будет сокращена, чтобы было проще делиться ею в социальных сетях.",
    "description": "",
    "placeholders": null
  },
  "link.label": {
    "message": "URL-адрес ссылки",
    "description": "",
    "placeholders": null
  },
  "link.placeholder": {
    "message": "Дополнительный пользовательский URL-адрес страницы",
    "description": "",
    "placeholders": null
  },
  "linkedin.custom_link_format.default": {
    "message": "http://www.linkedin.com/shareArticle?mini=true&url={{ social_link_url }}",
    "description": "",
    "placeholders": null
  },
  "linkedin.custom_link_format.label": {
    "message": "Ссылка",
    "description": "",
    "placeholders": null
  },
  "linkedin.enabled.label": {
    "message": "Включено?",
    "description": "",
    "placeholders": null
  },
  "linkedin.label": {
    "message": "LinkedIn",
    "description": "",
    "placeholders": null
  },
  "name": {
    "message": "Распространение в социальных сетях",
    "description": "",
    "placeholders": null
  },
  "pinterest.custom_link_format.default": {
    "message": "http://pinterest.com/pin/create/button/?url={{ social_link_url }}&media={{ pinterest_media }}",
    "description": "",
    "placeholders": null
  },
  "pinterest.custom_link_format.label": {
    "message": "Ссылка",
    "description": "",
    "placeholders": null
  },
  "pinterest.enabled.label": {
    "message": "Включено?",
    "description": "",
    "placeholders": null
  },
  "pinterest.label": {
    "message": "Pinterest",
    "description": "",
    "placeholders": null
  },
  "pinterest.pinterest_media.label": {
    "message": "Закрепить изображение",
    "description": "",
    "placeholders": null
  },
  "twitter.custom_link_format.default": {
    "message": "https://twitter.com/intent/tweet?original_referer={{ social_link_url }}&url={{ social_link_url }}&source=tweetbutton&text={{ social_page_title|urlencode }}",
    "description": "",
    "placeholders": null
  },
  "twitter.custom_link_format.label": {
    "message": "Ссылка",
    "description": "",
    "placeholders": null
  },
  "twitter.enabled.label": {
    "message": "Включено?",
    "description": "",
    "placeholders": null
  },
  "twitter.label": {
    "message": "Twitter",
    "description": "",
    "placeholders": null
  }
}
