{
  "name": {
    "message": "Seguir na rede social",
    "description": "",
    "placeholders": null
  },
  "override_default_style.label": {
    "message": "Contornar estilo predefinido",
    "description": "",
    "placeholders": null
  },
  "social_links.accessibility.label": {
    "message": "Opções de acessibilidade",
    "description": "",
    "placeholders": null
  },
  "social_links.accessibility.title.default": {
    "message": "Seguir-nos no Facebook",
    "description": "",
    "placeholders": null
  },
  "social_links.accessibility.title.label": {
    "message": "Título",
    "description": "",
    "placeholders": null
  },
  "social_links.custom_icon.label": {
    "message": "Ícone personalizado",
    "description": "",
    "placeholders": null
  },
  "social_links.label": {
    "message": "Ligações de redes sociais",
    "description": "",
    "placeholders": null
  },
  "social_links.social_account.choices.custom_icon": {
    "message": "Ícone personalizado",
    "description": "",
    "placeholders": null
  },
  "social_links.social_account.choices.envelope": {
    "message": "E-mail",
    "description": "",
    "placeholders": null
  },
  "social_links.social_account.choices.facebook-f": {
    "message": "Facebook",
    "description": "",
    "placeholders": null
  },
  "social_links.social_account.choices.instagram": {
    "message": "Instagram",
    "description": "",
    "placeholders": null
  },
  "social_links.social_account.choices.link": {
    "message": "Website",
    "description": "",
    "placeholders": null
  },
  "social_links.social_account.choices.linkedin-in": {
    "message": "LinkedIn",
    "description": "",
    "placeholders": null
  },
  "social_links.social_account.choices.pinterest-p": {
    "message": "Pinterest",
    "description": "",
    "placeholders": null
  },
  "social_links.social_account.choices.twitter": {
    "message": "Twitter",
    "description": "",
    "placeholders": null
  },
  "social_links.social_account.choices.whatsapp": {
    "message": "Whatsapp",
    "description": "",
    "placeholders": null
  },
  "social_links.social_account.choices.youtube": {
    "message": "YouTube",
    "description": "",
    "placeholders": null
  },
  "social_links.social_account.label": {
    "message": "Conta de rede social",
    "description": "",
    "placeholders": null
  },
  "social_links.social_link.label": {
    "message": "Ligação de rede social",
    "description": "",
    "placeholders": null
  },
  "style.bg_color.label": {
    "message": "Cor de fundo",
    "description": "",
    "placeholders": null
  },
  "style.color.label": {
    "message": "Cor",
    "description": "",
    "placeholders": null
  },
  "style.corner_radius.label": {
    "message": "Raio do canto",
    "description": "",
    "placeholders": null
  },
  "style.hover.bg_color.label": {
    "message": "Cor de fundo",
    "description": "",
    "placeholders": null
  },
  "style.hover.color.label": {
    "message": "Cor",
    "description": "",
    "placeholders": null
  },
  "style.hover.label": {
    "message": "Pairar",
    "description": "",
    "placeholders": null
  },
  "style.label": {
    "message": "Opções de estilo",
    "description": "",
    "placeholders": null
  },
  "style.size.help_text": {
    "message": "Largura em píxeis",
    "description": "",
    "placeholders": null
  },
  "style.size.label": {
    "message": "Tamanho",
    "description": "",
    "placeholders": null
  }
}
