{
  "link.help_text": {
    "message": "Hvis ikke der er angivet nogen URL, vil dit logo linke til dit primære domæne",
    "description": null,
    "placeholders": null
  },
  "link.label": {
    "message": "URL til link",
    "description": null,
    "placeholders": null
  },
  "open_in_new_tab.label": {
    "message": "Åben link i ny fane, når besøgene klikker",
    "description": null,
    "placeholders": null
  },
  "name": {
    "message": "Logo",
    "description": null,
    "placeholders": null
  },
  "heading_style.choices.h1": {
    "message": "H1",
    "description": "",
    "placeholders": null
  },
  "heading_style.choices.h2": {
    "message": "H2",
    "description": "",
    "placeholders": null
  },
  "heading_style.choices.h3": {
    "message": "H3",
    "description": "",
    "placeholders": null
  },
  "heading_style.choices.h4": {
    "message": "H4",
    "description": "",
    "placeholders": null
  },
  "heading_style.help_text": {
    "message": "Vælg en overskriftsstil. H1 er den største, herefter kommer H2 osv.",
    "description": "",
    "placeholders": null
  },
  "heading_style.label": {
    "message": "Overskriftsstil",
    "description": "",
    "placeholders": null
  },
  "heading_level.choices.h1": {
    "message": "H1",
    "description": "",
    "placeholders": null
  },
  "heading_level.choices.h2": {
    "message": "H2",
    "description": "",
    "placeholders": null
  },
  "heading_level.choices.h3": {
    "message": "H3",
    "description": "",
    "placeholders": null
  },
  "heading_level.choices.h4": {
    "message": "H4",
    "description": "",
    "placeholders": null
  },
  "heading_level.choices.h5": {
    "message": "H5",
    "description": "",
    "placeholders": null
  },
  "heading_level.choices.h6": {
    "message": "H6",
    "description": "",
    "placeholders": null
  },
  "heading_level.help_text": {
    "message": "Vælg en overskriftsniveau. H1 er det største, herefter kommer H2 osv.",
    "description": "",
    "placeholders": null
  },
  "heading_level.label": {
    "message": "Overskriftsniveau",
    "description": "",
    "placeholders": null
  }
}
