{
  "name": {
    "message": "Tlačítko",
    "description": "",
    "placeholders": null
  },
  "style.label": {
    "message": "Možnosti stylů",
    "description": "",
    "placeholders": null
  },
  "style.override_default_style.label": {
    "message": "Přepsat výchozí styl",
    "description": "",
    "placeholders": null
  },
  "button_text.default": {
    "message": "Sem vložte odkaz na tlačítko",
    "description": "",
    "placeholders": null
  },
  "button_text.label": {
    "message": "Text tlačítka",
    "description": "",
    "placeholders": null
  },
  "link.label": {
    "message": " ",
    "description": "",
    "placeholders": null
  },
  "style.button_color.label": {
    "message": "Barva tlačítka",
    "description": "",
    "placeholders": null
  },
  "style.button_font.label": {
    "message": "Písmo tlačítka",
    "description": "",
    "placeholders": null
  },
  "style.button_hover_color.label": {
    "message": "Barva tlačítka při najetí myší",
    "description": "",
    "placeholders": null
  },
  "style.text_hover_color.label": {
    "message": "Barva textu při najetí myší",
    "description": "",
    "placeholders": null
  }
}
