{
  "name": {
    "message": "Ikoon",
    "description": "",
    "placeholders": null
  },
  "accessibility.label": {
    "message": "Toeganklikheidsopsies",
    "description": "",
    "placeholders": null
  },
  "accessibility.purpose.choices.decorative": {
    "message": "Geïgnoreer deur skermleser",
    "description": "",
    "placeholders": null
  },
  "accessibility.purpose.choices.semantic": {
    "message": "Gelees deur skermleser",
    "description": "",
    "placeholders": null
  },
  "accessibility.purpose.label": {
    "message": "Doel",
    "description": "",
    "placeholders": null
  },
  "accessibility.title.label": {
    "message": "Titel",
    "description": "",
    "placeholders": null
  },
  "icon_field.label": {
    "message": "Ikoon",
    "description": "",
    "placeholders": null
  },
  "style.color.label": {
    "message": "Kleur",
    "description": "",
    "placeholders": null
  },
  "style.label": {
    "message": "Stylopsies",
    "description": "",
    "placeholders": null
  },
  "style.size.help_text": {
    "message": "Wydte in pieksels",
    "description": "",
    "placeholders": null
  },
  "style.size.label": {
    "message": "Grootte",
    "description": "",
    "placeholders": null
  }
}
