{
  "name": {
    "message": "Плъзгач на препоръка",
    "description": "",
    "placeholders": null
  },
  "override_default_style.help_text": {
    "message": "Разрешаването на тази опция ще ви позволи да презапишете стиловете на тема по подразбиране. Забраняването на тази опция ще свърже отново модула със стиловете на тема по подразбиране.",
    "description": "",
    "placeholders": null
  },
  "override_default_style.label": {
    "message": "Презаписване на стила по подразбиране",
    "description": "",
    "placeholders": null
  },
  "style.label": {
    "message": "Опции за стил",
    "description": "",
    "placeholders": null
  },
  "style.navigation_active_color.label": {
    "message": "Активен цвят на навигация",
    "description": "",
    "placeholders": null
  },
  "style.navigation_color.label": {
    "message": "Цвят на навигация",
    "description": "",
    "placeholders": null
  },
  "testimonial_slider.author.author_name.default": {
    "message": "Лори Хан",
    "description": "",
    "placeholders": null
  },
  "testimonial_slider.author.author_name.label": {
    "message": "Име на автор",
    "description": "",
    "placeholders": null
  },
  "testimonial_slider.author.label": {
    "message": "Автор",
    "description": "",
    "placeholders": null
  },
  "testimonial_slider.content.default": {
    "message": "Lorem ipsum dolor sit amet, consectetur adipiscing elit, sed do eiusmod tempor incididunt ut labore et dolore magna aliqua. Ut enim ad minim veniam, quis nostrud exercitation",
    "description": "",
    "placeholders": null
  },
  "testimonial_slider.content.label": {
    "message": "Текст на препоръка",
    "description": "",
    "placeholders": null
  },
  "testimonial_slider.label": {
    "message": "Препоръки",
    "description": "",
    "placeholders": null
  }
}
