{
  "name": {
    "message": "Menu đơn giản",
    "description": "",
    "placeholders": null
  },
  "menu_tree.label": {
    "message": "Menu đơn giản",
    "description": "",
    "placeholders": null
  },
  "orientation.choices.horizontal": {
    "message": "Chiều ngang",
    "description": "",
    "placeholders": null
  },
  "orientation.choices.vertical": {
    "message": "Chiều dọc",
    "description": "",
    "placeholders": null
  },
  "orientation.label": {
    "message": "Hướng menu",
    "description": "",
    "placeholders": null
  },
  "orientation.placeholder": {
    "message": "Tìm kiếm",
    "description": "",
    "placeholders": null
  }
}
