{
  "name": {
    "message": "Informații legate de sediu",
    "description": "",
    "placeholders": null
  },
  "html.default": {
    "message": "<p id=\"footer\" style=\"font-family: Geneva, Verdana, Arial, Helvetica, sans-serif; text-align: center; font-size: 12px; line-height: 1.34em; color: {{ secondary_font_color }}; display: block;\">{{site_settings.company_name}} &nbsp;&nbsp;{{site_settings.company_street_address_1}} &nbsp;{{site_settings.company_street_address_2}} &nbsp;{{site_settings.company_city}} &nbsp;{{site_settings.company_state}} &nbsp;&nbsp;{{site_settings.company_zip}} &nbsp;&nbsp;{{site_settings.company_country}} <br><br> Ați primit acest e-mail pentru că sunteți abonat la {{ subscription_name }} de la {{site_settings.company_name}} . <br><br> Actualizați-vă <a target=\"_blank\" href=\"{{ unsubscribe_link }}\" style=\"text-decoration: underline; whitespace: nowrap; color: {{ secondary_font_color }};\" data-unsubscribe=\"true\">preferințele legate de e-mail</a> pentru a alege tipurile de e-mailuri pe care să le primiți. <br><br> &nbsp;<a target=\"_blank\" href=\"{{ unsubscribe_link_all }}\" style=\"text-decoration: underline; whitespace: nowrap; color: {{ secondary_font_color }};\" data-unsubscribe=\"true\">Dezabonați-vă de la toate e-mailurile viitoare</a> &nbsp;</p>",
    "description": "",
    "placeholders": null
  },
  "html.label": {
    "message": "Text locație",
    "description": "",
    "placeholders": null
  }
}
