{
  "name": {
    "message": "Seguir en redes sociales",
    "description": "",
    "placeholders": null
  },
  "override_default_style.label": {
    "message": "Anular estilo predeterminado",
    "description": "",
    "placeholders": null
  },
  "social_links.accessibility.label": {
    "message": "Opciones de accesibilidad",
    "description": "",
    "placeholders": null
  },
  "social_links.accessibility.title.default": {
    "message": "Síguenos en Facebook",
    "description": "",
    "placeholders": null
  },
  "social_links.accessibility.title.label": {
    "message": "Título",
    "description": "",
    "placeholders": null
  },
  "social_links.custom_icon.label": {
    "message": "Ícono personalizado",
    "description": "",
    "placeholders": null
  },
  "social_links.label": {
    "message": "Enlaces en redes sociales",
    "description": "",
    "placeholders": null
  },
  "social_links.social_account.choices.custom_icon": {
    "message": "Ícono personalizado",
    "description": "",
    "placeholders": null
  },
  "social_links.social_account.choices.envelope": {
    "message": "Correo",
    "description": "",
    "placeholders": null
  },
  "social_links.social_account.choices.facebook-f": {
    "message": "Facebook",
    "description": "",
    "placeholders": null
  },
  "social_links.social_account.choices.instagram": {
    "message": "Instagram",
    "description": "",
    "placeholders": null
  },
  "social_links.social_account.choices.link": {
    "message": "Sitio web",
    "description": "",
    "placeholders": null
  },
  "social_links.social_account.choices.linkedin-in": {
    "message": "LinkedIn",
    "description": "",
    "placeholders": null
  },
  "social_links.social_account.choices.pinterest-p": {
    "message": "Pinterest",
    "description": "",
    "placeholders": null
  },
  "social_links.social_account.choices.twitter": {
    "message": "Twitter",
    "description": "",
    "placeholders": null
  },
  "social_links.social_account.choices.whatsapp": {
    "message": "Whatsapp",
    "description": "",
    "placeholders": null
  },
  "social_links.social_account.choices.youtube": {
    "message": "YouTube",
    "description": "",
    "placeholders": null
  },
  "social_links.social_account.label": {
    "message": "Cuenta en redes sociales",
    "description": "",
    "placeholders": null
  },
  "social_links.social_link.label": {
    "message": "Enlace en redes sociales",
    "description": "",
    "placeholders": null
  },
  "style.bg_color.label": {
    "message": "Color de fondo",
    "description": "",
    "placeholders": null
  },
  "style.color.label": {
    "message": "Color",
    "description": "",
    "placeholders": null
  },
  "style.corner_radius.label": {
    "message": "Radio de esquina",
    "description": "",
    "placeholders": null
  },
  "style.hover.bg_color.label": {
    "message": "Color de fondo",
    "description": "",
    "placeholders": null
  },
  "style.hover.color.label": {
    "message": "Color",
    "description": "",
    "placeholders": null
  },
  "style.hover.label": {
    "message": "Cursor encima",
    "description": "",
    "placeholders": null
  },
  "style.label": {
    "message": "Opciones de estilo",
    "description": "",
    "placeholders": null
  },
  "style.size.help_text": {
    "message": "Ancho en píxeles",
    "description": "",
    "placeholders": null
  },
  "style.size.label": {
    "message": "Tamaño",
    "description": "",
    "placeholders": null
  }
}
