{
  "name": {
    "message": "Paginação do blog",
    "description": "",
    "placeholders": null
  },
  "next_text.label": {
    "message": "Texto seguinte",
    "description": "",
    "placeholders": null
  },
  "prev_text.label": {
    "message": "Texto anterior",
    "description": "",
    "placeholders": null
  }
}
