{
  "name": {
    "message": "الأيقونة",
    "description": "",
    "placeholders": null
  },
  "accessibility.label": {
    "message": "خيارات الوصول",
    "description": "",
    "placeholders": null
  },
  "accessibility.purpose.choices.decorative": {
    "message": "تم التجاهل بواسطة قارئ الشاشة",
    "description": "",
    "placeholders": null
  },
  "accessibility.purpose.choices.semantic": {
    "message": "تمت القراءة بواسطة قارئ الشاشة",
    "description": "",
    "placeholders": null
  },
  "accessibility.purpose.label": {
    "message": "الغرض",
    "description": "",
    "placeholders": null
  },
  "accessibility.title.label": {
    "message": "العنوان",
    "description": "",
    "placeholders": null
  },
  "icon_field.label": {
    "message": "الأيقونة",
    "description": "",
    "placeholders": null
  },
  "style.color.label": {
    "message": "اللون",
    "description": "",
    "placeholders": null
  },
  "style.label": {
    "message": "خيارات النمط",
    "description": "",
    "placeholders": null
  },
  "style.size.help_text": {
    "message": "العرض بالبكسل",
    "description": "",
    "placeholders": null
  },
  "style.size.label": {
    "message": "الحجم",
    "description": "",
    "placeholders": null
  }
}
