{
  "name": {
    "message": "Atsiliepimų slankiklis",
    "description": "",
    "placeholders": null
  },
  "override_default_style.help_text": {
    "message": "Įjungę šią parinktį galėsite perrašyti numatytuosius temos stilius. Išjungus parinktį modulis bus vėl prijungtas prie numatytųjų temos stilių.",
    "description": "",
    "placeholders": null
  },
  "override_default_style.label": {
    "message": "Perrašyti numatytąjį stilių",
    "description": "",
    "placeholders": null
  },
  "style.label": {
    "message": "Stiliaus parinktys",
    "description": "",
    "placeholders": null
  },
  "style.navigation_active_color.label": {
    "message": "Naršymo aktyvumo spalva",
    "description": "",
    "placeholders": null
  },
  "style.navigation_color.label": {
    "message": "Naršymo spalva",
    "description": "",
    "placeholders": null
  },
  "testimonial_slider.author.author_name.default": {
    "message": "Lori Hahn",
    "description": "",
    "placeholders": null
  },
  "testimonial_slider.author.author_name.label": {
    "message": "Autoriaus vardas, pavardė",
    "description": "",
    "placeholders": null
  },
  "testimonial_slider.author.label": {
    "message": "Autorius",
    "description": "",
    "placeholders": null
  },
  "testimonial_slider.content.default": {
    "message": "Lorem ipsum dolor sit amet, consectetur adipiscing elit, sed do eiusmod tempor incididunt ut labore et dolore magna aliqua. Ut enim ad minim veniam, quis nostrud exercitation",
    "description": "",
    "placeholders": null
  },
  "testimonial_slider.content.label": {
    "message": "Atsiliepimo tekstas",
    "description": "",
    "placeholders": null
  },
  "testimonial_slider.label": {
    "message": "Atsiliepimai",
    "description": "",
    "placeholders": null
  }
}
