{
  "name": {
    "message": "Hủy đăng ký dự phòng",
    "description": "",
    "placeholders": null
  },
  "button_text.label": {
    "message": "Văn bản trên nút",
    "description": "",
    "placeholders": null
  },
  "header.default": {
    "message": "Hủy đăng ký email",
    "description": "",
    "placeholders": null
  },
  "input_placeholder.label": {
    "message": "Văn bản chỗ dành sẵn để nhập email",
    "description": "",
    "placeholders": null
  },
  "input_help_text.default": {
    "message": "Địa chỉ email của bạn:",
    "description": "",
    "placeholders": null
  },
  "button_text.default": {
    "message": "Hủy đăng ký",
    "description": "",
    "placeholders": null
  },
  "input_placeholder.default": {
    "message": "email@example.com",
    "description": "",
    "placeholders": null
  },
  "header.label": {
    "message": "Tiêu đề",
    "description": "",
    "placeholders": null
  },
  "input_help_text.label": {
    "message": "Văn bản trợ giúp nhập email",
    "description": "",
    "placeholders": null
  }
}
