{
  "header.default": {
    "message": "Selkeä ja lihavoitu yläotsikko",
    "description": null,
    "placeholders": null
  },
  "header.label": {
    "message": "Osio-otsikon sisältö",
    "description": null,
    "placeholders": null
  },
  "subheader.default": {
    "message": "Hillitympi alaotsikko",
    "description": null,
    "placeholders": null
  },
  "subheader.label": {
    "message": "Osion alaotsikko",
    "description": null,
    "placeholders": null
  },
  "name": {
    "message": "Osion otsikko",
    "description": null,
    "placeholders": null
  },
  "heading_level.choices.h1": {
    "message": "H1",
    "description": "",
    "placeholders": null
  },
  "heading_level.choices.h2": {
    "message": "H2",
    "description": "",
    "placeholders": null
  },
  "heading_level.choices.h3": {
    "message": "H3",
    "description": "",
    "placeholders": null
  },
  "heading_level.choices.h4": {
    "message": "H4",
    "description": "",
    "placeholders": null
  },
  "heading_level.choices.h5": {
    "message": "H5",
    "description": "",
    "placeholders": null
  },
  "heading_level.choices.h6": {
    "message": "H6",
    "description": "",
    "placeholders": null
  },
  "heading_level.help_text": {
    "message": "Valitse otsikkotaso. Suurin on H1, jota seuraa H2 jne.",
    "description": "",
    "placeholders": null
  },
  "heading_level.label": {
    "message": "Otsikkotaso",
    "description": "",
    "placeholders": null
  }
}
