{
  "name": {
    "message": "Main email body",
    "description": "",
    "placeholders": null
  },
  "html.default": {
    "message": "<p>Hello&nbsp;{{contact.firstname}},</p>\n<p>Describe what you have to offer the customer. Why should they read? What did you promise them in the subject line? Tell them something interesting. Make them laugh. Make them cry. Well, maybe don't do that...</p>\n<p>Use a list to:</p>\n<ul>\n<li>Explain the value of your offer</li>\n<li>Remind the reader what they’ll get out of taking action</li>\n<li>Show off your skill with bullet points</li>\n<li>Make your content easy to scan</li>\n</ul>\n<p><a href=\"http://hubspot.com\">LINK TO A LANDING PAGE ON YOUR SITE</a> (This is the really important part.)</p>\n<p>Now wrap it all up with a pithy little reminder of how much you appreciate them.</p>\n<p>You silver-tongued devil, you.</p>\n<p>Sincerely,</p>\n<p>Your name</p>",
    "description": "",
    "placeholders": null
  },
  "html.label": {
    "message": "Email body",
    "description": "",
    "placeholders": null
  }
}
