{
  "name": {
    "message": "Заклик до дії",
    "description": "",
    "placeholders": null
  },
  "guid.label": {
    "message": "Заклик до дії",
    "description": "",
    "placeholders": null
  }
}
