{
  "name": {
    "message": "Ikona",
    "description": "",
    "placeholders": null
  },
  "accessibility.label": {
    "message": "Možnosti zjednodušenia prístupu",
    "description": "",
    "placeholders": null
  },
  "accessibility.purpose.choices.decorative": {
    "message": "Ignorované čítačkou obrazovky",
    "description": "",
    "placeholders": null
  },
  "accessibility.purpose.choices.semantic": {
    "message": "Prečítať pomocou čítačky obrazovky",
    "description": "",
    "placeholders": null
  },
  "accessibility.purpose.label": {
    "message": "Účel",
    "description": "",
    "placeholders": null
  },
  "accessibility.title.label": {
    "message": "Názov",
    "description": "",
    "placeholders": null
  },
  "icon_field.label": {
    "message": "Ikona",
    "description": "",
    "placeholders": null
  },
  "style.color.label": {
    "message": "Farba",
    "description": "",
    "placeholders": null
  },
  "style.label": {
    "message": "Možnosti štýlu",
    "description": "",
    "placeholders": null
  },
  "style.size.help_text": {
    "message": "Šírka v pixeloch",
    "description": "",
    "placeholders": null
  },
  "style.size.label": {
    "message": "Veľkosť",
    "description": "",
    "placeholders": null
  }
}
