{
  "name": {
    "message": "Preprost meni",
    "description": "",
    "placeholders": null
  },
  "menu_tree.label": {
    "message": "Preprost meni",
    "description": "",
    "placeholders": null
  },
  "orientation.choices.horizontal": {
    "message": "Vodoravno",
    "description": "",
    "placeholders": null
  },
  "orientation.choices.vertical": {
    "message": "Navpično",
    "description": "",
    "placeholders": null
  },
  "orientation.label": {
    "message": "Usmerjenost menija",
    "description": "",
    "placeholders": null
  },
  "orientation.placeholder": {
    "message": "Išči",
    "description": "",
    "placeholders": null
  }
}
