{
  "name": {
    "message": "区切り",
    "description": "",
    "placeholders": null
  },
  "alignment.label": {
    "message": "位置合わせ",
    "description": "",
    "placeholders": null
  },
  "alignment.choices.center": {
    "message": "センター",
    "description": "",
    "placeholders": null
  },
  "alignment.choices.left": {
    "message": "左",
    "description": "",
    "placeholders": null
  },
  "alignment.choices.right": {
    "message": "右",
    "description": "",
    "placeholders": null
  },
  "color.label": {
    "message": "カラー",
    "description": "",
    "placeholders": null
  },
  "height.label": {
    "message": "高さ（px）",
    "description": "",
    "placeholders": null
  },
  "line_type.label": {
    "message": "線の種別",
    "description": "",
    "placeholders": null
  },
  "line_type.choices.dashed": {
    "message": "破線",
    "description": "",
    "placeholders": null
  },
  "line_type.choices.dotted": {
    "message": "点線",
    "description": "",
    "placeholders": null
  },
  "line_type.choices.solid": {
    "message": "実線",
    "description": "",
    "placeholders": null
  },
  "padding.label": {
    "message": "パディング（px）",
    "description": "",
    "placeholders": null
  },
  "show_padding.label": {
    "message": "パディングを表示しますか？",
    "description": "",
    "placeholders": null
  },
  "width.label": {
    "message": "幅（%）",
    "description": "",
    "placeholders": null
  }
}
