{
  "name": {
    "message": "Gumb",
    "description": "",
    "placeholders": null
  },
  "style.label": {
    "message": "Možnosti sloga",
    "description": "",
    "placeholders": null
  },
  "style.override_default_style.label": {
    "message": "Preglasi privzeti slog",
    "description": "",
    "placeholders": null
  },
  "style.button_color.label": {
    "message": "Barva gumba",
    "description": "",
    "placeholders": null
  },
  "style.button_font.label": {
    "message": "Pisava gumba",
    "description": "",
    "placeholders": null
  },
  "style.button_hover_color.label": {
    "message": "Barva lebdenja gumba",
    "description": "",
    "placeholders": null
  },
  "style.text_hover_color.label": {
    "message": "Barva lebdenja besedila",
    "description": "",
    "placeholders": null
  },
  "button_text.default": {
    "message": "Tukaj dodaj gumb povezave",
    "description": "",
    "placeholders": null
  },
  "button_text.label": {
    "message": "Besedilo gumba",
    "description": "",
    "placeholders": null
  },
  "link.label": {
    "message": " ",
    "description": "",
    "placeholders": null
  }
}
