{
  "name": {
    "message": "Pogledaj kao internetsku stranicu",
    "description": "",
    "placeholders": null
  },
  "html.default": {
    "message": "<div style=\"padding-top: 15px; font-family: Geneva, Verdana, Arial, Helvetica, sans-serif; text-align: right; font-size: 9px; line-height: 1.34em; color: {{ secondary_font_color }};\">Ne prikazuje se ispravno? Prikaži ovu poruku e-pošte kao internetsku stranicu <a target=\"_blank\" href=\"{{ view_as_page_url }}\" style=\"color: {{ secondary_font_color }}; text-decoration: underline; white-space: nowrap;\" data-viewaswebpage=\"true\">ovdje</a>.</div>",
    "description": "",
    "placeholders": null
  },
  "html.label": {
    "message": "Prikaži kao tekst internetske stranice",
    "description": "",
    "placeholders": null
  }
}
