{
  "heading_level.choices.h1": {
    "message": "H1",
    "description": "",
    "placeholders": null
  },
  "heading_level.choices.h2": {
    "message": "H2",
    "description": "",
    "placeholders": null
  },
  "heading_level.choices.h3": {
    "message": "H3",
    "description": "",
    "placeholders": null
  },
  "heading_level.choices.h4": {
    "message": "H4",
    "description": "",
    "placeholders": null
  },
  "heading_level.choices.h5": {
    "message": "H5",
    "description": "",
    "placeholders": null
  },
  "heading_level.choices.h6": {
    "message": "H6",
    "description": "",
    "placeholders": null
  },
  "heading_level.help_text": {
    "message": "Choisissez un niveau d'en-tête. H1 est le plus grand, suivi de H2, et ainsi de suite.",
    "description": "",
    "placeholders": null
  },
  "heading_level.label": {
    "message": "Niveau de l'en-tête",
    "description": "",
    "placeholders": null
  },
  "link.help_text": {
    "message": "Si aucune url n'est spécifiée, votre logo sera lié à votre domaine principal",
    "description": "",
    "placeholders": null
  },
  "link.label": {
    "message": "Lien URL",
    "description": "",
    "placeholders": null
  },
  "name": {
    "message": "Logo",
    "description": "",
    "placeholders": null
  },
  "open_in_new_tab.label": {
    "message": "Ouvrir le lien dans un nouvel onglet lorsque les visiteurs cliquent",
    "description": "",
    "placeholders": null
  }
}
