{
  "name": {
    "message": "Botó",
    "description": "",
    "placeholders": null
  },
  "style.label": {
    "message": "Opcions d'estil",
    "description": "",
    "placeholders": null
  },
  "style.override_default_style.label": {
    "message": "Substitueix l'estil per defecte",
    "description": "",
    "placeholders": null
  },
  "button_text.default": {
    "message": "Afegeix un enllaç de botó aquí",
    "description": "",
    "placeholders": null
  },
  "button_text.label": {
    "message": "Text del botó",
    "description": "",
    "placeholders": null
  },
  "link.label": {
    "message": " ",
    "description": "",
    "placeholders": null
  },
  "style.button_color.label": {
    "message": "Color del botó",
    "description": "",
    "placeholders": null
  },
  "style.button_font.label": {
    "message": "Tipus de lletra del botó",
    "description": "",
    "placeholders": null
  },
  "style.button_hover_color.label": {
    "message": "Color del botó en passar-hi el punter per sobre",
    "description": "",
    "placeholders": null
  },
  "style.text_hover_color.label": {
    "message": "Color del text en passar-hi el punter per sobre",
    "description": "",
    "placeholders": null
  }
}
