{
  "name": {
    "message": "ড্র্যাগ এবং ড্রপ সক্ষম করুন",
    "description": "",
    "placeholders": null
  },
  "enable_dnd.label": {
    "message": "ড্র্যাগ এবং ড্রপ সক্ষম করুন",
    "description": "",
    "placeholders": null
  },
  "enable_dnd.inline_help_text": {
    "message": "<br/>এই বৈশিষ্ট্যটি সক্ষম করলে আপনি ড্র্যাগ এবং ড্রপ করে আপনার ফুটারকে এডিট করতে পারবেন।<br/><br/> এটি সক্ষম হয়ে গেলে, বিষয়বস্তুটি তার ডিফল্ট অবস্থায় পুনরায় স্থির হবে। আপনার পূর্ববর্তী বিষয়বস্তুটি পুনরুদ্ধার করতে হলে, কেবল ড্র্যাগ এবং ড্রপ নিষ্ক্রিয় করুন।<b></b>",
    "description": "",
    "placeholders": null
  }
}
