{
  "link.help_text": {
    "message": "如果沒有指定 URL，則商標會連結至你的主要網域",
    "description": null,
    "placeholders": null
  },
  "link.label": {
    "message": "連結 URL",
    "description": null,
    "placeholders": null
  },
  "open_in_new_tab.label": {
    "message": "訪客點擊時以新分頁開啟連結",
    "description": null,
    "placeholders": null
  },
  "name": {
    "message": "標誌",
    "description": null,
    "placeholders": null
  },
  "heading_style.choices.h1": {
    "message": "H1",
    "description": "",
    "placeholders": null
  },
  "heading_style.choices.h2": {
    "message": "H2",
    "description": "",
    "placeholders": null
  },
  "heading_style.choices.h3": {
    "message": "H3",
    "description": "",
    "placeholders": null
  },
  "heading_style.choices.h4": {
    "message": "H4",
    "description": "",
    "placeholders": null
  },
  "heading_style.help_text": {
    "message": "選擇標題樣式，H1 最大，然後是 H2，如此類推",
    "description": "",
    "placeholders": null
  },
  "heading_style.label": {
    "message": "標題樣式",
    "description": "",
    "placeholders": null
  },
  "heading_level.choices.h1": {
    "message": "H1",
    "description": "",
    "placeholders": null
  },
  "heading_level.choices.h2": {
    "message": "H2",
    "description": "",
    "placeholders": null
  },
  "heading_level.choices.h3": {
    "message": "H3",
    "description": "",
    "placeholders": null
  },
  "heading_level.choices.h4": {
    "message": "H4",
    "description": "",
    "placeholders": null
  },
  "heading_level.choices.h5": {
    "message": "H5",
    "description": "",
    "placeholders": null
  },
  "heading_level.choices.h6": {
    "message": "H6",
    "description": "",
    "placeholders": null
  },
  "heading_level.help_text": {
    "message": "選擇標題層級，H1 最大，然後是 H2，如此類推",
    "description": "",
    "placeholders": null
  },
  "heading_level.label": {
    "message": "標題層級",
    "description": "",
    "placeholders": null
  }
}
