{
  "name": {
    "message": "Se désabonner des sauvegardes",
    "description": "",
    "placeholders": null
  },
  "button_text.label": {
    "message": "Texte du bouton",
    "description": "",
    "placeholders": null
  },
  "header.default": {
    "message": "Se désabonner par courriel",
    "description": "",
    "placeholders": null
  },
  "input_placeholder.label": {
    "message": "Texte de remplacement pour les entrées par courriel",
    "description": "",
    "placeholders": null
  },
  "input_help_text.default": {
    "message": "Votre adresse électronique :",
    "description": "",
    "placeholders": null
  },
  "button_text.default": {
    "message": "Se désabonner",
    "description": "",
    "placeholders": null
  },
  "input_placeholder.default": {
    "message": "courriel@exemple.com",
    "description": "",
    "placeholders": null
  },
  "header.label": {
    "message": "En-tête",
    "description": "",
    "placeholders": null
  },
  "input_help_text.label": {
    "message": "Aide à la saisie des courriels",
    "description": "",
    "placeholders": null
  }
}
