{
  "name": {
    "message": "Social Follow",
    "description": "",
    "placeholders": null
  },
  "override_default_style.label": {
    "message": "Override default style",
    "description": "",
    "placeholders": null
  },
  "social_links.accessibility.label": {
    "message": "Accessibility options",
    "description": "",
    "placeholders": null
  },
  "social_links.accessibility.title.default": {
    "message": "Follow us on Facebook",
    "description": "",
    "placeholders": null
  },
  "social_links.accessibility.title.label": {
    "message": "Title",
    "description": "",
    "placeholders": null
  },
  "social_links.custom_icon.label": {
    "message": "Custom icon",
    "description": "",
    "placeholders": null
  },
  "social_links.label": {
    "message": "Social links",
    "description": "",
    "placeholders": null
  },
  "social_links.social_account.choices.custom_icon": {
    "message": "Custom icon",
    "description": "",
    "placeholders": null
  },
  "social_links.social_account.choices.envelope": {
    "message": "Email",
    "description": "",
    "placeholders": null
  },
  "social_links.social_account.choices.facebook-f": {
    "message": "Facebook",
    "description": "",
    "placeholders": null
  },
  "social_links.social_account.choices.instagram": {
    "message": "Instagram",
    "description": "",
    "placeholders": null
  },
  "social_links.social_account.choices.link": {
    "message": "Website",
    "description": "",
    "placeholders": null
  },
  "social_links.social_account.choices.linkedin-in": {
    "message": "LinkedIn",
    "description": "",
    "placeholders": null
  },
  "social_links.social_account.choices.pinterest-p": {
    "message": "Pinterest",
    "description": "",
    "placeholders": null
  },
  "social_links.social_account.choices.twitter": {
    "message": "Twitter",
    "description": "",
    "placeholders": null
  },
  "social_links.social_account.choices.whatsapp": {
    "message": "Whatsapp",
    "description": "",
    "placeholders": null
  },
  "social_links.social_account.choices.youtube": {
    "message": "YouTube",
    "description": "",
    "placeholders": null
  },
  "social_links.social_account.label": {
    "message": "Social account",
    "description": "",
    "placeholders": null
  },
  "social_links.social_link.label": {
    "message": "Social link",
    "description": "",
    "placeholders": null
  },
  "style.bg_color.label": {
    "message": "Background colour",
    "description": "",
    "placeholders": null
  },
  "style.color.label": {
    "message": "Colour",
    "description": "",
    "placeholders": null
  },
  "style.corner_radius.label": {
    "message": "Corner radius",
    "description": "",
    "placeholders": null
  },
  "style.hover.bg_color.label": {
    "message": "Background colour",
    "description": "",
    "placeholders": null
  },
  "style.hover.color.label": {
    "message": "Colour",
    "description": "",
    "placeholders": null
  },
  "style.hover.label": {
    "message": "Hover",
    "description": "",
    "placeholders": null
  },
  "style.label": {
    "message": "Style options",
    "description": "",
    "placeholders": null
  },
  "style.size.help_text": {
    "message": "Width in pixels",
    "description": "",
    "placeholders": null
  },
  "style.size.label": {
    "message": "Size",
    "description": "",
    "placeholders": null
  }
}
