{
  "name": {
    "message": "מעקב חברתי",
    "description": "",
    "placeholders": null
  },
  "override_default_style.label": {
    "message": "עקוף סגנון ברירת מחדל",
    "description": "",
    "placeholders": null
  },
  "social_links.accessibility.label": {
    "message": "אפשרויות נגישות",
    "description": "",
    "placeholders": null
  },
  "social_links.accessibility.title.default": {
    "message": "עקוב אחרינו ב-Facebook",
    "description": "",
    "placeholders": null
  },
  "social_links.accessibility.title.label": {
    "message": "כותרת",
    "description": "",
    "placeholders": null
  },
  "social_links.custom_icon.label": {
    "message": "סמל מותאם אישית",
    "description": "",
    "placeholders": null
  },
  "social_links.label": {
    "message": "קישורים חברתיים",
    "description": "",
    "placeholders": null
  },
  "social_links.social_account.choices.custom_icon": {
    "message": "סמל מותאם אישית",
    "description": "",
    "placeholders": null
  },
  "social_links.social_account.choices.envelope": {
    "message": "דוא\"ל",
    "description": "",
    "placeholders": null
  },
  "social_links.social_account.choices.facebook-f": {
    "message": "Facebook",
    "description": "",
    "placeholders": null
  },
  "social_links.social_account.choices.instagram": {
    "message": "Instagram",
    "description": "",
    "placeholders": null
  },
  "social_links.social_account.choices.link": {
    "message": "אתר אינטרנט",
    "description": "",
    "placeholders": null
  },
  "social_links.social_account.choices.linkedin-in": {
    "message": "LinkedIn",
    "description": "",
    "placeholders": null
  },
  "social_links.social_account.choices.pinterest-p": {
    "message": "Pinterest",
    "description": "",
    "placeholders": null
  },
  "social_links.social_account.choices.twitter": {
    "message": "Twitter",
    "description": "",
    "placeholders": null
  },
  "social_links.social_account.choices.whatsapp": {
    "message": "Whatsapp",
    "description": "",
    "placeholders": null
  },
  "social_links.social_account.choices.youtube": {
    "message": "YouTube",
    "description": "",
    "placeholders": null
  },
  "social_links.social_account.label": {
    "message": "חשבון חברתי",
    "description": "",
    "placeholders": null
  },
  "social_links.social_link.label": {
    "message": "קישור חברתי",
    "description": "",
    "placeholders": null
  },
  "style.bg_color.label": {
    "message": "צבע רקע",
    "description": "",
    "placeholders": null
  },
  "style.color.label": {
    "message": "צבע",
    "description": "",
    "placeholders": null
  },
  "style.corner_radius.label": {
    "message": "רדיוס פינה",
    "description": "",
    "placeholders": null
  },
  "style.hover.bg_color.label": {
    "message": "צבע רקע",
    "description": "",
    "placeholders": null
  },
  "style.hover.color.label": {
    "message": "צבע",
    "description": "",
    "placeholders": null
  },
  "style.hover.label": {
    "message": "ריחוף",
    "description": "",
    "placeholders": null
  },
  "style.label": {
    "message": "אפשרויות סגנון",
    "description": "",
    "placeholders": null
  },
  "style.size.help_text": {
    "message": "רוחב בפיקסלים",
    "description": "",
    "placeholders": null
  },
  "style.size.label": {
    "message": "גודל",
    "description": "",
    "placeholders": null
  }
}
