{
  "name": {
    "message": "Kantoorliggingsinligting",
    "description": "",
    "placeholders": null
  },
  "html.default": {
    "message": "<p id=\"footer\" style=\"font-family: Geneva, Verdana, Arial, Helvetica, sans-serif; text-align: center; font-size: 12px; line-height: 1.34em; color: {{ secondary_font_color }}; display: block;\">{{site_settings.company_name}} &nbsp;&nbsp;{{site_settings.company_street_address_1}} &nbsp;{{site_settings.company_street_address_2}} &nbsp;{{site_settings.company_city}} &nbsp;{{site_settings.company_state}} &nbsp;&nbsp;{{site_settings.company_zip}} &nbsp;&nbsp;{{site_settings.company_country}} <br><br> Jy het hierdie e-pos ontvang omdat jy ingeteken is by  {{ subscription_name }} van {{site_settings.company_name}} . <br><br> Werk jou <a target=\"_blank\" href=\"{{ unsubscribe_link }}\" style=\"text-decoration: underline; whitespace: nowrap; color: {{ secondary_font_color }};\" data-unsubscribe=\"true\">e-posvoorkeure by</a> om die tipe e-posse wat jy ontvang te kies. <br><br> &nbsp;<a target=\"_blank\" href=\"{{ unsubscribe_link_all }}\" style=\"text-decoration: underline; whitespace: nowrap; color: {{ secondary_font_color }};\" data-unsubscribe=\"true\">Kanselleer alle toekomstige e-posse</a> &nbsp;</p>",
    "description": "",
    "placeholders": null
  },
  "html.label": {
    "message": "Liggingsteks",
    "description": "",
    "placeholders": null
  }
}
