{
  "name": {
    "message": "视频",
    "description": "",
    "placeholders": null
  },
  "video_type.label": {
    "message": "视频类型",
    "description": "",
    "placeholders": null
  },
  "video_type.choices.embed": {
    "message": "嵌入",
    "description": "",
    "placeholders": null
  },
  "video_type.choices.hubspot_video": {
    "message": "HubSpot 视频",
    "description": "",
    "placeholders": null
  },
  "hubspot_video.label": {
    "message": "HubSpot 视频",
    "description": "",
    "placeholders": null
  },
  "embed_field.label": {
    "message": "嵌入",
    "description": "",
    "placeholders": null
  },
  "oembed_thumbnail.label": {
    "message": "自定义缩略图",
    "description": "",
    "placeholders": null
  },
  "style_options.label": {
    "message": "样式选项",
    "description": "",
    "placeholders": null
  },
  "style_options.oembed_thumbnail_play_button_color.label": {
    "message": "”播放“按钮颜色",
    "description": "",
    "placeholders": null
  },
  "placeholder_fields.label": {
    "message": "占位符文本",
    "description": "",
    "placeholders": null
  },
  "placeholder_fields.placeholder_title.label": {
    "message": "视频占位符标题",
    "description": "",
    "placeholders": null
  },
  "placeholder_fields.placeholder_title.default": {
    "message": "未选择任何视频。",
    "description": "",
    "placeholders": null
  },
  "placeholder_fields.placeholder_description.label": {
    "message": "视频占位符描述",
    "description": "",
    "placeholders": null
  },
  "placeholder_fields.placeholder_description.default": {
    "message": "在边栏中选择一个视频类型。",
    "description": "",
    "placeholders": null
  }
}
