{
  "name": {
    "message": "Seznam objav v spletnem dnevniku",
    "description": "",
    "placeholders": null
  },
  "number_of_posts.label": {
    "message": "Število objav",
    "description": "",
    "placeholders": null
  },
  "read_more.default": {
    "message": "Preberi več",
    "description": "",
    "placeholders": null
  },
  "read_more.label": {
    "message": "Preberi več besedila",
    "description": "",
    "placeholders": null
  },
  "select_blog.label": {
    "message": "Izberite spletni dnevnik",
    "description": "",
    "placeholders": null
  },
  "select_blog_type.choices.popular_posts": {
    "message": "Priljubljene objave",
    "description": "",
    "placeholders": null
  },
  "select_blog_type.choices.recent_posts": {
    "message": "Nedavno objavljeno",
    "description": "",
    "placeholders": null
  },
  "select_blog_type.label": {
    "message": "Izberite vrsto spletnega dnevnika",
    "description": "",
    "placeholders": null
  },
  "style.background_color.label": {
    "message": "Barva ozadja",
    "description": "",
    "placeholders": null
  },
  "style.label": {
    "message": "Možnosti sloga",
    "description": "",
    "placeholders": null
  },
  "style.override_default_style.label": {
    "message": "Preglasi privzeti slog",
    "description": "",
    "placeholders": null
  },
  "style.text_color.label": {
    "message": "Barva besedila",
    "description": "",
    "placeholders": null
  }
}
