{
  "name": {
    "message": "Filtru etichete blog",
    "description": "",
    "placeholders": null
  },
  "default_filter_text.default": {
    "message": "Selectare categorie",
    "description": "",
    "placeholders": null
  },
  "default_filter_text.label": {
    "message": "Text substituent",
    "description": "",
    "placeholders": null
  }
}
