{
  "name": {
    "message": "Καταχώρηση ανάρτησης ιστολογίου",
    "description": "",
    "placeholders": null
  },
  "number_of_posts.label": {
    "message": "Αριθμός αναρτήσεων",
    "description": "",
    "placeholders": null
  },
  "read_more.default": {
    "message": "Περισσότερες λεπτομέρειες",
    "description": "",
    "placeholders": null
  },
  "read_more.label": {
    "message": "Κείμενο για διάβασμα περισσότερων",
    "description": "",
    "placeholders": null
  },
  "select_blog.label": {
    "message": "Επιλογή ιστολογίου",
    "description": "",
    "placeholders": null
  },
  "select_blog_type.choices.popular_posts": {
    "message": "Δημοφιλείς αναρτήσεις",
    "description": "",
    "placeholders": null
  },
  "select_blog_type.choices.recent_posts": {
    "message": "Πρόσφατες αναρτήσεις",
    "description": "",
    "placeholders": null
  },
  "select_blog_type.label": {
    "message": "Επιλέξτε τύπο ιστολογίου",
    "description": "",
    "placeholders": null
  },
  "style.background_color.label": {
    "message": "Χρώμα φόντου",
    "description": "",
    "placeholders": null
  },
  "style.label": {
    "message": "Επιλογές στυλ",
    "description": "",
    "placeholders": null
  },
  "style.override_default_style.label": {
    "message": "Παράκαμψη προεπιλεγμένου στυλ",
    "description": "",
    "placeholders": null
  },
  "style.text_color.label": {
    "message": "Χρώμα κειμένου",
    "description": "",
    "placeholders": null
  }
}
