{
  "name": {
    "message": "Кнопка",
    "description": "",
    "placeholders": null
  },
  "style.button_color.label": {
    "message": "Цвет кнопки",
    "description": "",
    "placeholders": null
  },
  "style.button_font.label": {
    "message": "Шрифт кнопки",
    "description": "",
    "placeholders": null
  },
  "style.button_hover_color.label": {
    "message": "Цвет наведения на кнопку",
    "description": "",
    "placeholders": null
  },
  "style.label": {
    "message": "Параметры стиля",
    "description": "",
    "placeholders": null
  },
  "style.override_default_style.label": {
    "message": "Переопределить стиль по умолчанию",
    "description": "",
    "placeholders": null
  },
  "style.text_hover_color.label": {
    "message": "Цвет наведения на текст",
    "description": "",
    "placeholders": null
  },
  "button_text.default": {
    "message": "Добавьте ссылку кнопки здесь",
    "description": "",
    "placeholders": null
  },
  "button_text.label": {
    "message": "Текст кнопки",
    "description": "",
    "placeholders": null
  },
  "link.label": {
    "message": " ",
    "description": "",
    "placeholders": null
  }
}
