{
  "name": {
    "message": "Εικονίδιο",
    "description": "",
    "placeholders": null
  },
  "accessibility.label": {
    "message": "Επιλογές προσβασιμότητας",
    "description": "",
    "placeholders": null
  },
  "accessibility.purpose.choices.decorative": {
    "message": "Παραβλέφθηκε από το πρόγραμμα ανάγνωσης οθόνης",
    "description": "",
    "placeholders": null
  },
  "accessibility.purpose.choices.semantic": {
    "message": "Διαβάστηκε από το πρόγραμμα ανάγνωσης οθόνης",
    "description": "",
    "placeholders": null
  },
  "accessibility.purpose.label": {
    "message": "Σκοπός",
    "description": "",
    "placeholders": null
  },
  "accessibility.title.label": {
    "message": "Tίτλος",
    "description": "",
    "placeholders": null
  },
  "icon_field.label": {
    "message": "Εικονίδιο",
    "description": "",
    "placeholders": null
  },
  "style.color.label": {
    "message": "Χρώμα",
    "description": "",
    "placeholders": null
  },
  "style.label": {
    "message": "Επιλογές στυλ",
    "description": "",
    "placeholders": null
  },
  "style.size.help_text": {
    "message": "Πλάτος σε pixel",
    "description": "",
    "placeholders": null
  },
  "style.size.label": {
    "message": "Μέγεθος",
    "description": "",
    "placeholders": null
  }
}
