{
  "name": {
    "message": "Contingut del blog",
    "description": "",
    "placeholders": null
  },
  "template_to_edit.choices.post": {
    "message": "Publicació",
    "description": "",
    "placeholders": null
  },
  "blog_post_source.label": {
    "message": "Origen de la publicació del blog",
    "description": "",
    "placeholders": null
  },
  "template_to_edit.choices.listing": {
    "message": "Llista",
    "description": "",
    "placeholders": null
  },
  "template_to_edit.placeholder": {
    "message": "Cerca",
    "description": "",
    "placeholders": null
  },
  "template_to_edit.label": {
    "message": "Plantilla per editar",
    "description": "",
    "placeholders": null
  },
  "blog_listing_source.label": {
    "message": "Origen de la llista del blog",
    "description": "",
    "placeholders": null
  }
}
