{
  "name": {
    "message": "Painike",
    "description": "",
    "placeholders": null
  },
  "style.button_color.label": {
    "message": "Painikkeen väri",
    "description": "",
    "placeholders": null
  },
  "style.button_font.label": {
    "message": "Painikkeen fontti",
    "description": "",
    "placeholders": null
  },
  "style.button_hover_color.label": {
    "message": "Painikkeen päällä pidon väri",
    "description": "",
    "placeholders": null
  },
  "style.label": {
    "message": "Tyyliasetukset",
    "description": "",
    "placeholders": null
  },
  "style.override_default_style.label": {
    "message": "Korvaa oletustyyli",
    "description": "",
    "placeholders": null
  },
  "style.text_hover_color.label": {
    "message": "Tekstin päällä pidon väri",
    "description": "",
    "placeholders": null
  },
  "button_text.default": {
    "message": "Lisää painikelinkki tähän",
    "description": "",
    "placeholders": null
  },
  "button_text.label": {
    "message": "Painiketeksti",
    "description": "",
    "placeholders": null
  },
  "link.label": {
    "message": " ",
    "description": "",
    "placeholders": null
  }
}
