{
  "value.default": {
    "message": "Algumas informações adicionais numa linha",
    "description": null,
    "placeholders": null
  },
  "value.label": {
    "message": "Texto",
    "description": null,
    "placeholders": null
  },
  "name": {
    "message": "Uma linha de texto",
    "description": null,
    "placeholders": null
  }
}
