{
  "name": {
    "message": "Xem dưới dạng trang web",
    "description": "",
    "placeholders": null
  },
  "html.default": {
    "message": "<div style=\"padding-top: 15px; font-family: Geneva, Verdana, Arial, Helvetica, sans-serif; text-align: right; font-size: 9px; line-height: 1.34em; color: {{ secondary_font_color }};\">Không kết xuất chính xác? Hãy xem email này dưới dạng trang web <a target=\"_blank\" href=\"{{ view_as_page_url }}\" style=\"color: {{ secondary_font_color }}; text-decoration: underline; white-space: nowrap;\" data-viewaswebpage=\"true\">ở đây</a>.</div>",
    "description": "",
    "placeholders": null
  },
  "html.label": {
    "message": "Xem dưới dạng văn bản trang web",
    "description": "",
    "placeholders": null
  }
}
