{
  "name": {
    "message": "Diapositives de témoignage",
    "description": "",
    "placeholders": null
  },
  "override_default_style.help_text": {
    "message": "L'activation de cette option vous permettra de remplacer les styles de thèmes par défaut. La désactivation de cette option reconnectera le module aux styles de thèmes par défaut.",
    "description": "",
    "placeholders": null
  },
  "override_default_style.label": {
    "message": "Remplacer le style par défaut",
    "description": "",
    "placeholders": null
  },
  "style.label": {
    "message": "Options de style",
    "description": "",
    "placeholders": null
  },
  "style.navigation_active_color.label": {
    "message": "Couleur de navigation active",
    "description": "",
    "placeholders": null
  },
  "style.navigation_color.label": {
    "message": "Couleur de navigation",
    "description": "",
    "placeholders": null
  },
  "testimonial_slider.author.author_name.default": {
    "message": "Lori Hahn",
    "description": "",
    "placeholders": null
  },
  "testimonial_slider.author.author_name.label": {
    "message": "Nom de l'auteur",
    "description": "",
    "placeholders": null
  },
  "testimonial_slider.author.label": {
    "message": "Auteur",
    "description": "",
    "placeholders": null
  },
  "testimonial_slider.content.default": {
    "message": "Lorem ipsum dolor sit amet, consectetur adipiscing elit, sed do eiusmod tempor incididunt ut labore et dolore magna aliqua. Ut enim ad minim veniam, quis nostrud exercitation",
    "description": "",
    "placeholders": null
  },
  "testimonial_slider.content.label": {
    "message": "Texte de témoignage",
    "description": "",
    "placeholders": null
  },
  "testimonial_slider.label": {
    "message": "Témoignages",
    "description": "",
    "placeholders": null
  }
}
