{
  "name": {
    "message": "Knoppie",
    "description": "",
    "placeholders": null
  },
  "style.label": {
    "message": "Stylopsies",
    "description": "",
    "placeholders": null
  },
  "style.override_default_style.label": {
    "message": "Ignoreer standaardstyl",
    "description": "",
    "placeholders": null
  },
  "button_text.default": {
    "message": "Voeg 'n knoppieskakel hier by",
    "description": "",
    "placeholders": null
  },
  "button_text.label": {
    "message": "Knoppieteks",
    "description": "",
    "placeholders": null
  },
  "link.label": {
    "message": " ",
    "description": "",
    "placeholders": null
  },
  "style.button_color.label": {
    "message": "Knoppiekleur",
    "description": "",
    "placeholders": null
  },
  "style.button_font.label": {
    "message": "Knoppiefont",
    "description": "",
    "placeholders": null
  },
  "style.button_hover_color.label": {
    "message": "Knoppie-sweefkleur",
    "description": "",
    "placeholders": null
  },
  "style.text_hover_color.label": {
    "message": "Tekssweefkleur",
    "description": "",
    "placeholders": null
  }
}
