{
  "name": {
    "message": "Office location information",
    "description": "",
    "placeholders": null
  },
  "html.default": {
    "message": "<p id=\"footer\" style=\"font-family: Geneva, Verdana, Arial, Helvetica, sans-serif; text-align: center; font-size: 12px; line-height: 1.34em; color: {{ secondary_font_color }}; display: block;\">{{site_settings.company_name}} &nbsp;&nbsp;{{site_settings.company_street_address_1}} &nbsp;{{site_settings.company_street_address_2}} &nbsp;{{site_settings.company_city}} &nbsp;{{site_settings.company_state}} &nbsp;&nbsp;{{site_settings.company_zip}} &nbsp;&nbsp;{{site_settings.company_country}} <br><br> You have received this email because you subscribed to {{ subscription_name }} from {{site_settings.company_name}} . <br><br> Update your <a target=\"_blank\" href=\"{{ unsubscribe_link }}\" style=\"text-decoration: underline; whitespace: nowrap; color: {{ secondary_font_color }};\" data-unsubscribe=\"true\">email preferences</a> to choose the types of emails you receive. <br><br> &nbsp;<a target=\"_blank\" href=\"{{ unsubscribe_link_all }}\" style=\"text-decoration: underline; whitespace: nowrap; color: {{ secondary_font_color }};\" data-unsubscribe=\"true\">Unsubscribe from all future emails</a> &nbsp;</p>",
    "description": "",
    "placeholders": null
  },
  "html.label": {
    "message": "Location text",
    "description": "",
    "placeholders": null
  }
}
