{
  "name": {
    "message": "Vergaderings",
    "description": "",
    "placeholders": null
  },
  "meeting.label": {
    "message": "Kies vergaderingskakel",
    "description": "",
    "placeholders": null
  },
  "meeting.help_text": {
    "message": "Kies 'n bestaande vergadering vanaf die sybalk, of skep 'n nuwe een deur na die <a href='//app.hubspot.com/l/meetings/'>Vergadering-hulpmiddel</a> te gaan",
    "description": "",
    "placeholders": null
  },
  "select_meeting_title.default": {
    "message": "Geen vergadering is gekies nie",
    "description": "",
    "placeholders": null
  },
  "select_meeting_description.default": {
    "message": "Kies 'n bestaande vergadering vanaf die sybalk, of skep 'n nuwe een deur na die Vergadering-hulpmiddel te gaan",
    "description": "",
    "placeholders": null
  }
}
