{
  "follow_up_type_automation.label": {
    "message": "Adicionar ao fluxo de trabalho",
    "description": null,
    "placeholders": null
  },
  "follow_up_type_simple.label": {
    "message": "Enviar um e-mail de seguimento",
    "description": null,
    "placeholders": null
  },
  "form.default.message": {
    "message": "Agradecemos a submissão do formulário.",
    "description": null,
    "placeholders": null
  },
  "form.label": {
    "message": "Formulário",
    "description": null,
    "placeholders": null
  },
  "form_follow_ups_workflow_id.label": {
    "message": "Fluxo de trabalho",
    "description": null,
    "placeholders": null
  },
  "notifications_are_overridden.label": {
    "message": "Enviar notificações do formulário para os endereços de e-mail especificados em vez das predefinições do formulário",
    "description": null,
    "placeholders": null
  },
  "notifications_override_email_addresses.label": {
    "message": "Endereços de e-mail",
    "description": null,
    "placeholders": null
  },
  "sfdc_campaign.label": {
    "message": "Campanha da Sailsforce",
    "description": null,
    "placeholders": null
  },
  "simple_email_for_live_id.label": {
    "message": "E-mail",
    "description": null,
    "placeholders": null
  },
  "title.label": {
    "message": "Título do formulároi",
    "description": null,
    "placeholders": null
  },
  "name": {
    "message": "Formulário",
    "description": null,
    "placeholders": null
  },
  "font_field.label": {
    "message": "Campo de fonte",
    "description": null,
    "placeholders": null
  },
  "follow_up_type_simple.help_text": {
    "message": "Para enviar um e-mail de seguimento, certifique-se de que a definição \"Definir contactos criados como contactos de marketing\" está ativada. Pode gerir estas opções. <a href='https://knowledge.hubspot.com/contacts/set-contacts-as-marketing#set-the-default-marketing-status-for-new-contacts'>Saber mais</a>",
    "description": "",
    "placeholders": null
  }
}
