{
  "html.default": {
    "message": "<h2>Algo poderoso</h2>\n<h3>Dizer mais ao leitor</h3>\n<p>O título e subcabeçalho dizem-nos o que está a <a href=\"#\">oferecer</a>, e o cabeçalho do formulário fecha o negócio. Aqui, pode explicar por que razão a sua oferta é tão fantástica que faz com que valha a pena preencher o formulário.</p>\n<p>Lembre-se:</p>\n<ul>\n<li>As marcas de lista são fantásticas</li>\n<li>Para explicar claramente os <a href=\"#\">benefícios</a> e</li>\n<li>Para transformar os visitantes em futuros clientes.</li>\n</ul>",
    "description": null,
    "placeholders": null
  },
  "html.label": {
    "message": "Conteúdo de texto formatado",
    "description": null,
    "placeholders": null
  },
  "name": {
    "message": "Texto formatado",
    "description": null,
    "placeholders": null
  },
  "html.defaultEmail": {
    "message": "<h2>Cabeçalho</h2><p>Adicione texto ao seu e-mail.</p>",
    "description": "",
    "placeholders": null
  }
}
